<?xml version="1.0" encoding="iso-8859-1"?>
<!-- Generator: Adobe Illustrator 19.0.0, SVG Export Plug-In . SVG Version: 6.00 Build 0)  -->
<svg version="1.1" id="Capa_1" xmlns="http://www.w3.org/2000/svg" xmlns:xlink="http://www.w3.org/1999/xlink" x="0px" y="0px" fill="#fff"
	 viewBox="0 0 480 480" style="enable-background:new 0 0 480 480;" xml:space="preserve">
<g>
	<g>
		<polygon points="280,160 280,144 264,144 264,160 248,160 248,176 264,176 264,192 280,192 280,176 296,176 296,160 		"/>
	</g>
</g>
<g>
	<g>
		<path d="M207.432,125.024c-1.217-3.037-4.16-5.026-7.432-5.024c-3.272-0.003-6.215,1.987-7.432,5.024l-32,80l14.864,5.952
			L183.016,192h33.968l7.584,18.976l14.864-5.952L207.432,125.024z M189.416,176L200,149.536L210.584,176H189.416z"/>
	</g>
</g>
<g>
	<g>
		<path d="M232,80c-61.76,0-112,39.48-112,88s50.24,88,112,88c17.445,0.042,34.741-3.215,50.976-9.6l-5.952-14.856
			c-14.34,5.634-29.617,8.504-45.024,8.456c-52.936,0-96-32.304-96-72s43.064-72,96-72c52.936,0,96,32.304,96,72
			c-0.475,17.423-8.252,33.843-21.432,45.248l10.864,11.744C333.905,210.574,343.549,189.887,344,168C344,119.48,293.76,80,232,80z"
			/>
	</g>
</g>
<g>
	<g>
		<path d="M416,64h-24V40c0-4.418-3.582-8-8-8H152v-4c0-15.464-12.536-28-28-28S96,12.536,96,28v4H80c-4.418,0-8,3.582-8,8v344H32
			c-4.418,0-8,3.582-8,8v24c0,17.673,14.327,32,32,32h48v24c0,4.418,3.582,8,8,8h304c4.418,0,8-3.582,8-8V72
			C424,67.582,420.418,64,416,64z M112,28c0-6.627,5.373-12,12-12c6.627,0,12,5.373,12,12v4h-24V28z M88,48h48v24
			c0,4.418-3.582,8-8,8s-8-3.582-8-8v-8h-16v8c0,13.255,10.745,24,24,24s24-10.745,24-24V48h224v368c0,8.837-7.163,16-16,16
			s-16-7.163-16-16v-24c0-4.418-3.582-8-8-8H88V48z M56,432c-8.837,0-16-7.163-16-16v-16h288v16c-0.009,5.619,1.474,11.141,4.296,16
			H56z M408,464H120v-16h240c17.673,0,32-14.327,32-32V80h16V464z"/>
	</g>
</g>
<g>
	<g>
		<rect x="144" y="280" width="16" height="16"/>
	</g>
</g>
<g>
	<g>
		<rect x="176" y="280" width="176" height="16"/>
	</g>
</g>
<g>
	<g>
		<rect x="112" y="312" width="240" height="16"/>
	</g>
</g>
<g>
	<g>
		<rect x="112" y="344" width="208" height="16"/>
	</g>
</g>
<g>
	<g>
		<rect x="440" y="344" width="16" height="104"/>
	</g>
</g>
<g>
	<g>
		<rect x="440" y="464" width="16" height="16"/>
	</g>
</g>
<g>
	<g>
		<rect x="40" y="112" width="16" height="104"/>
	</g>
</g>
<g>
	<g>
		<rect x="40" y="80" width="16" height="16"/>
	</g>
</g>
<g>
</g>
<g>
</g>
<g>
</g>
<g>
</g>
<g>
</g>
<g>
</g>
<g>
</g>
<g>
</g>
<g>
</g>
<g>
</g>
<g>
</g>
<g>
</g>
<g>
</g>
<g>
</g>
<g>
</g>
</svg>
